{
  "uniqueID": "1k551v1dm",
  "type": "RootContent",
  "name": "Root",
  "editor": "Root",
  "dataLayout": {
    "properties": {
      "class": {},
      "style": {
        "backgroundColor": "#FFFFFF"
      }
    }
  },
  "dataFBPixel": {
    "listButton": [
      {
        "id": "1k551wyym",
        "name": "Button 1"
      },
      {
        "id": "1k551wyyo",
        "name": "Button 2"
      }
    ],
    "listPixelID": [],
    "listDataPixelEvent": []
  },
  "child": [
    {
      "uniqueID": "1k551wyy7",
      "type": "SectionContent",
      "name": "Section",
      "editor": "SectionEditor",
      "dataLayout": {
        "properties": {
          "class": [
            "w-100"
          ],
          "style": {
            "height": "90vh",
            "backgroundSize": "cover",
            "backgroundColor": "#FAFAFA",
            "backgroundRepeat": "no-repeat",
            "backgroundPosition": "center center",
            "paddingTop": "64px",
            "paddingBottom": "64px",
            "paddingLeft": "0px",
            "paddingRight": "0px"
          }
        }
      },
      "child": [
        {
          "uniqueID": "1bszefirpkhwvkmrf",
          "type": "BoxContent",
          "name": "Box",
          "editor": "BoxEditor",
          "dataLayout": {
            "properties": {
              "class": [],
              "style": {
                "maxWidth": "1170px",
                "paddingTop": "0px",
                "paddingBottom": "0px",
                "paddingLeft": "0px",
                "paddingRight": "0px",
                "margin": "0 auto",
                "backgroundRepeat": "no-repeat",
                "backgroundSize": "cover",
                "backgroundPosition": "center"
              }
            }
          },
          "child": [
            {
              "uniqueID": "1bszefirpkhwvkmrg",
              "type": "RowContent",
              "name": "Row",
              "editor": "RowEditor",
              "dataLayout": {
                "properties": {
                  "class": [],
                  "style": {
                    "paddingTop": "16px",
                    "paddingBottom": "16px",
                    "paddingLeft": "16px",
                    "paddingRight": "16px"
                  }
                }
              },
              "child": [
                {
                  "uniqueID": "1bszefirpkhwvkmrh",
                  "type": "ColumnContent",
                  "name": "Column",
                  "editor": "ColumnEditor",
                  "dataLayout": {
                    "properties": {
                      "class": [],
                      "style": {
                        "paddingTop": "16px",
                        "paddingBottom": "16px",
                        "paddingLeft": "16px",
                        "paddingRight": "16px"
                      }
                    },
                    "gridProperties": {
                      "col": {
                        "xs": 12,
                        "md": "",
                        "lg": ""
                      },
                      "offset": {
                        "xs": "",
                        "md": "",
                        "lg": ""
                      },
                      "order": {
                        "xs": "",
                        "md": "",
                        "lg": ""
                      }
                    }
                  },
                  "child": [
                    {
                      "uniqueID": "1k551wyy8",
                      "type": "RowContent",
                      "name": "Row",
                      "editor": "RowEditor",
                      "dataLayout": {
                        "properties": {
                          "class": [],
                          "style": {}
                        },
                        "passEventToParent": true
                      },
                      "child": [
                        {
                          "uniqueID": "1k551wyy9",
                          "type": "ColumnContent",
                          "name": "Column",
                          "editor": "ColumnEditor",
                          "dataLayout": {
                            "properties": {
                              "class": [
                                "col-md",
                                "col-lg"
                              ],
                              "style": {
                                "paddingTop": "16px",
                                "paddingBottom": "16px",
                                "paddingLeft": "16px",
                                "paddingRight": "16px"
                              }
                            },
                            "gridProperties": {
                              "col": {
                                "xs": 12,
                                "md": 6,
                                "lg": 6
                              },
                              "offset": {
                                "xs": "",
                                "md": "",
                                "lg": ""
                              },
                              "order": {
                                "xs": "",
                                "md": "",
                                "lg": ""
                              }
                            }
                          },
                          "child": [
                            {
                              "uniqueID": "1k551wyya",
                              "type": "RowContent",
                              "name": "Row",
                              "editor": "RowEditor",
                              "dataLayout": {
                                "properties": {
                                  "class": [],
                                  "style": {
                                    "backgroundColor": "#FFFFFF"
                                  }
                                },
                                "passEventToParent": true
                              },
                              "child": [
                                {
                                  "uniqueID": "1k551wyyb",
                                  "type": "ColumnContent",
                                  "name": "Column",
                                  "editor": "ColumnEditor",
                                  "dataLayout": {
                                    "properties": {
                                      "class": [
                                        "col-md",
                                        "col-lg"
                                      ],
                                      "style": {
                                        "paddingTop": "16px",
                                        "paddingBottom": "16px",
                                        "paddingLeft": "16px",
                                        "paddingRight": "16px"
                                      }
                                    },
                                    "gridProperties": {
                                      "col": {
                                        "xs": 12,
                                        "md": 6,
                                        "lg": 6
                                      },
                                      "offset": {
                                        "xs": "",
                                        "md": "",
                                        "lg": ""
                                      },
                                      "order": {
                                        "xs": "",
                                        "md": "",
                                        "lg": ""
                                      }
                                    }
                                  },
                                  "child": [
                                    {
                                      "uniqueID": "1bszefirpkhwvkmri",
                                      "type": "RowContent",
                                      "name": "Row",
                                      "editor": "RowEditor",
                                      "dataLayout": {
                                        "properties": {
                                          "class": [],
                                          "style": {
                                            "paddingTop": "16px",
                                            "paddingBottom": "16px",
                                            "paddingLeft": "16px",
                                            "paddingRight": "16px"
                                          }
                                        }
                                      },
                                      "child": [
                                        {
                                          "uniqueID": "1bszefirpkhwvkmrj",
                                          "type": "ColumnContent",
                                          "name": "Column",
                                          "editor": "ColumnEditor",
                                          "dataLayout": {
                                            "properties": {
                                              "class": [],
                                              "style": {
                                                "paddingTop": "16px",
                                                "paddingBottom": "16px",
                                                "paddingLeft": "16px",
                                                "paddingRight": "16px"
                                              }
                                            },
                                            "gridProperties": {
                                              "col": {
                                                "xs": 12,
                                                "md": "",
                                                "lg": ""
                                              },
                                              "offset": {
                                                "xs": "",
                                                "md": "",
                                                "lg": ""
                                              },
                                              "order": {
                                                "xs": "",
                                                "md": "",
                                                "lg": ""
                                              }
                                            }
                                          },
                                          "child": [
                                            {
                                              "uniqueID": "1k551wyyd",
                                              "type": "ImageContent",
                                              "name": "Image",
                                              "editor": "ImageEditor",
                                              "dataLayout": {
                                                "properties": {
                                                  "src": "https://img.imageboss.me/shopclicks/cdn/quality:50/Page%20Builder%20Assets/Asset%20Mattress/558432-PKPCCU-9_2x_fqf5pb.png",
                                                  "class": [
                                                    "circle",
                                                    "full-container",
                                                    "left"
                                                  ],
                                                  "style": {
                                                    "backgroundColor": "#FFFFFFF"
                                                  }
                                                }
                                              },
                                              "child": []
                                            }
                                          ]
                                        }
                                      ]
                                    },
                                    {
                                      "uniqueID": "1bszefirpkhwvkmrk",
                                      "type": "RowContent",
                                      "name": "Row",
                                      "editor": "RowEditor",
                                      "dataLayout": {
                                        "properties": {
                                          "class": [],
                                          "style": {
                                            "paddingTop": "16px",
                                            "paddingBottom": "16px",
                                            "paddingLeft": "16px",
                                            "paddingRight": "16px"
                                          }
                                        }
                                      },
                                      "child": [
                                        {
                                          "uniqueID": "1bszefirpkhwvkmrl",
                                          "type": "ColumnContent",
                                          "name": "Column",
                                          "editor": "ColumnEditor",
                                          "dataLayout": {
                                            "properties": {
                                              "class": [],
                                              "style": {
                                                "paddingTop": "16px",
                                                "paddingBottom": "16px",
                                                "paddingLeft": "16px",
                                                "paddingRight": "16px"
                                              }
                                            },
                                            "gridProperties": {
                                              "col": {
                                                "xs": 12,
                                                "md": "",
                                                "lg": ""
                                              },
                                              "offset": {
                                                "xs": "",
                                                "md": "",
                                                "lg": ""
                                              },
                                              "order": {
                                                "xs": "",
                                                "md": "",
                                                "lg": ""
                                              }
                                            }
                                          },
                                          "child": [
                                            {
                                              "uniqueID": "1k551wyyf",
                                              "type": "TextContent",
                                              "name": "Text",
                                              "editor": "TextEditor",
                                              "dataLayout": {
                                                "text": "<p><em><span style=\"font-size: 14pt\"><span style=\"color: #707070\"><span style=\"font-family: Roboto Slab\">\"Saya tunggu Anda di live webinar!\"</span></span></span></em></p>",
                                                "properties": {
                                                  "class": [],
                                                  "style": {}
                                                }
                                              },
                                              "child": []
                                            }
                                          ]
                                        },
                                        {
                                          "uniqueID": "1bszefirpkhwvkmrm",
                                          "type": "ColumnContent",
                                          "name": "Column",
                                          "editor": "ColumnEditor",
                                          "dataLayout": {
                                            "properties": {
                                              "class": [],
                                              "style": {
                                                "paddingTop": "16px",
                                                "paddingBottom": "16px",
                                                "paddingLeft": "16px",
                                                "paddingRight": "16px"
                                              }
                                            },
                                            "gridProperties": {
                                              "col": {
                                                "xs": 12,
                                                "md": "",
                                                "lg": ""
                                              },
                                              "offset": {
                                                "xs": "",
                                                "md": "",
                                                "lg": ""
                                              },
                                              "order": {
                                                "xs": "",
                                                "md": "",
                                                "lg": ""
                                              }
                                            }
                                          },
                                          "child": [
                                            {
                                              "uniqueID": "1k551wyyg",
                                              "type": "TextContent",
                                              "name": "Text",
                                              "editor": "TextEditor",
                                              "dataLayout": {
                                                "text": "<p><span style=\"font-size: 12pt\"><span style=\"color: #707070\"><span style=\"font-family: Roboto Slab\">Teguh Pramboyo</span></span></span></p>",
                                                "properties": {
                                                  "class": [],
                                                  "style": {}
                                                }
                                              },
                                              "child": []
                                            }
                                          ]
                                        },
                                        {
                                          "uniqueID": "1bszefirpkhwvkmrn",
                                          "type": "ColumnContent",
                                          "name": "Column",
                                          "editor": "ColumnEditor",
                                          "dataLayout": {
                                            "properties": {
                                              "class": [],
                                              "style": {
                                                "paddingTop": "16px",
                                                "paddingBottom": "16px",
                                                "paddingLeft": "16px",
                                                "paddingRight": "16px"
                                              }
                                            },
                                            "gridProperties": {
                                              "col": {
                                                "xs": 12,
                                                "md": "",
                                                "lg": ""
                                              },
                                              "offset": {
                                                "xs": "",
                                                "md": "",
                                                "lg": ""
                                              },
                                              "order": {
                                                "xs": "",
                                                "md": "",
                                                "lg": ""
                                              }
                                            }
                                          },
                                          "child": [
                                            {
                                              "uniqueID": "1k551wyyh",
                                              "type": "TextContent",
                                              "name": "Text",
                                              "editor": "TextEditor",
                                              "dataLayout": {
                                                "text": "<p><span style=\"font-size: 9pt\"><span style=\"color: #707070\"><span style=\"font-family: Roboto Slab\">livinggood.com</span></span></span></p>",
                                                "properties": {
                                                  "class": [],
                                                  "style": {}
                                                }
                                              },
                                              "child": []
                                            }
                                          ]
                                        }
                                      ]
                                    }
                                  ]
                                },
                                {
                                  "uniqueID": "1k551wyyi",
                                  "type": "ColumnContent",
                                  "name": "Column",
                                  "editor": "ColumnEditor",
                                  "dataLayout": {
                                    "properties": {
                                      "class": [
                                        "col-md",
                                        "col-lg"
                                      ],
                                      "style": {
                                        "paddingTop": "16px",
                                        "paddingBottom": "16px",
                                        "paddingLeft": "16px",
                                        "paddingRight": "16px"
                                      }
                                    },
                                    "gridProperties": {
                                      "col": {
                                        "xs": 12,
                                        "md": 6,
                                        "lg": 6
                                      },
                                      "offset": {
                                        "xs": "",
                                        "md": "",
                                        "lg": ""
                                      },
                                      "order": {
                                        "xs": "",
                                        "md": "",
                                        "lg": ""
                                      }
                                    }
                                  },
                                  "child": [
                                    {
                                      "uniqueID": "1k551wyyj",
                                      "type": "TextContent",
                                      "name": "Text",
                                      "editor": "TextEditor",
                                      "dataLayout": {
                                        "text": "<p><em><span style=\"font-size: 18pt\"><span style=\"color: #707070\"><span style=\"font-family: Roboto Slab\">Selamat, Anda telah terdaftar mengikuti live webinar</span></span></span></em></p>",
                                        "properties": {
                                          "class": [],
                                          "style": {
                                            "marginBottom": "2em"
                                          }
                                        }
                                      },
                                      "child": []
                                    },
                                    {
                                      "uniqueID": "1k551wyyk",
                                      "type": "TextContent",
                                      "name": "Text",
                                      "editor": "TextEditor",
                                      "dataLayout": {
                                        "text": "<p><span style=\"font-size: 12pt\"><span style=\"color: #707070\"><span style=\"font-family: Roboto Slab\">Have a friend who would enjoy this training?</span></span></span></p><p><span style=\"font-size: 12pt\"><span style=\"color: #707070\"><span style=\"font-family: Roboto Slab\">Invite them to join us!</span></span></span></p>",
                                        "properties": {
                                          "class": [],
                                          "style": {
                                            "marginBottom": "2em"
                                          }
                                        }
                                      },
                                      "child": []
                                    },
                                    {
                                      "uniqueID": "1bszefirpkhwvkmro",
                                      "type": "RowContent",
                                      "name": "Row",
                                      "editor": "RowEditor",
                                      "dataLayout": {
                                        "properties": {
                                          "class": [],
                                          "style": {
                                            "paddingTop": "16px",
                                            "paddingBottom": "16px",
                                            "paddingLeft": "16px",
                                            "paddingRight": "16px"
                                          }
                                        }
                                      },
                                      "child": [
                                        {
                                          "uniqueID": "1bszefirpkhwvkmrp",
                                          "type": "ColumnContent",
                                          "name": "Column",
                                          "editor": "ColumnEditor",
                                          "dataLayout": {
                                            "properties": {
                                              "class": [],
                                              "style": {
                                                "paddingTop": "16px",
                                                "paddingBottom": "16px",
                                                "paddingLeft": "16px",
                                                "paddingRight": "16px"
                                              }
                                            },
                                            "gridProperties": {
                                              "col": {
                                                "xs": 12,
                                                "md": "",
                                                "lg": ""
                                              },
                                              "offset": {
                                                "xs": "",
                                                "md": "",
                                                "lg": ""
                                              },
                                              "order": {
                                                "xs": "",
                                                "md": "",
                                                "lg": ""
                                              }
                                            }
                                          },
                                          "child": [
                                            {
                                              "uniqueID": "1k551wyym",
                                              "type": "ButtonContent",
                                              "name": "Button",
                                              "editor": "ButtonEditor",
                                              "dataLayout": {
                                                "text": "<p><span>Share on Facebook</span></p>",
                                                "properties": {
                                                  "class": [
                                                    "center",
                                                    "square",
                                                    "large",
                                                    "rounded",
                                                    "fill"
                                                  ],
                                                  "style": {
                                                    "color": "#FFFFFFFF",
                                                    "padding": "0.250em 0",
                                                    "fontSize": "12pt",
                                                    "textAlign": "center",
                                                    "fontFamily": "Roboto Slab",
                                                    "backgroundColor": "#415E94"
                                                  }
                                                },
                                                "defaultName": "Button 1",
                                                "textPosition": "After Slot"
                                              },
                                              "child": []
                                            }
                                          ]
                                        }
                                      ]
                                    },
                                    {
                                      "uniqueID": "1bszefirpkhwvkmrq",
                                      "type": "RowContent",
                                      "name": "Row",
                                      "editor": "RowEditor",
                                      "dataLayout": {
                                        "properties": {
                                          "class": [],
                                          "style": {
                                            "paddingTop": "16px",
                                            "paddingBottom": "16px",
                                            "paddingLeft": "16px",
                                            "paddingRight": "16px"
                                          }
                                        }
                                      },
                                      "child": [
                                        {
                                          "uniqueID": "1bszefirpkhwvkmrr",
                                          "type": "ColumnContent",
                                          "name": "Column",
                                          "editor": "ColumnEditor",
                                          "dataLayout": {
                                            "properties": {
                                              "class": [],
                                              "style": {
                                                "paddingTop": "16px",
                                                "paddingBottom": "16px",
                                                "paddingLeft": "16px",
                                                "paddingRight": "16px"
                                              }
                                            },
                                            "gridProperties": {
                                              "col": {
                                                "xs": 12,
                                                "md": "",
                                                "lg": ""
                                              },
                                              "offset": {
                                                "xs": "",
                                                "md": "",
                                                "lg": ""
                                              },
                                              "order": {
                                                "xs": "",
                                                "md": "",
                                                "lg": ""
                                              }
                                            }
                                          },
                                          "child": [
                                            {
                                              "uniqueID": "1k551wyyo",
                                              "type": "ButtonContent",
                                              "name": "Button",
                                              "editor": "ButtonEditor",
                                              "dataLayout": {
                                                "text": "<p><span>Share on Twitter</span></p>",
                                                "properties": {
                                                  "class": [
                                                    "center",
                                                    "square",
                                                    "large",
                                                    "rounded",
                                                    "fill"
                                                  ],
                                                  "style": {
                                                    "color": "#FFFFFFFF",
                                                    "padding": "0.250em 0",
                                                    "fontSize": "12pt",
                                                    "textAlign": "center",
                                                    "fontFamily": "Roboto Slab",
                                                    "backgroundColor": "#5DABEE"
                                                  }
                                                },
                                                "defaultName": "Button 2",
                                                "textPosition": "After Slot"
                                              },
                                              "child": []
                                            }
                                          ]
                                        }
                                      ]
                                    }
                                  ]
                                }
                              ]
                            }
                          ]
                        }
                      ]
                    }
                  ]
                }
              ]
            }
          ]
        }
      ]
    }
  ]
}